…
# Counts of ENSM taxa and species

Summary statistics for the paper

``` r
# IF this returns something incorrect, make sure to boot from dplyr! 'summarise' pulls from something else if not
# By boot, I mean 'dplyr::summarise'

# Summarize by ENSM species   
ensm.species.summary <- ensm %>% group_by(sciname) %>% dplyr::summarise(pop_count=length(sciname)); ensm.species.summary
```

    ## `summarise()` ungrouping output (override with `.groups` argument)

    ## # A tibble: 92 x 2
    ##    sciname                  pop_count
    ##    <chr>                        <int>
    ##  1 Accipiter nisus                  1
    ##  2 Actitis hypoleucos               1
    ##  3 Agraphospiza rubescens           1
    ##  4 Anser indicus                    2
    ##  5 Anthropoides virgo               1
    ##  6 Anthus hodgsoni                  1
    ##  7 Anthus roseatus                  1
    ##  8 Anthus trivialis                 1
    ##  9 Brachypteryx montana             1
    ## 10 Calandrella acutirostris         1
    ## # … with 82 more rows
…
``` r
# The second column "pop_count" lists the total # of identified ENSM populations per order

# Now summarize ENSM species x order 
# ensm.speciesbyorder.summary2 <- ensm.speciesbyorder.summary %>% group_by(sciname, order) %>% dplyr::summarise(total=length(pop_count)); ensm.speciesbyorder.summary2
# # # This gives total number of SPECIES per order 
# # sum(ensm.speciesbyorder.summary2$total) 
 
# Summarize by ENSM species by family  
ensm.speciesbyfam.summary <- ensm %>% group_by(sciname, family) %>% dplyr::summarise(pop_count=length(sciname)); ensm.speciesbyfam.summary
```

    ## `summarise()` regrouping output by 'sciname' (override with `.groups` argument)

    ## # A tibble: 92 x 3
    ## # Groups:   sciname [92]
    ##    sciname                  family       pop_count
    ##    <chr>                    <chr>            <int>
    ##  1 Accipiter nisus          Accipitridae         1
    ##  2 Actitis hypoleucos       Scolopacidae         1
    ##  3 Agraphospiza rubescens   Fringillidae         1
    ##  4 Anser indicus            Anatidae             2
    ##  5 Anthropoides virgo       Gruidae              1
    ##  6 Anthus hodgsoni          Motacillidae         1
    ##  7 Anthus roseatus          Motacillidae         1
    ##  8 Anthus trivialis         Motacillidae         1
    ##  9 Brachypteryx montana     Muscicapidae         1
    ## 10 Calandrella acutirostris Alaudidae            1
    ## # … with 82 more rows

``` r
# The second column "pop_count" lists the total # of identified ENSM populations

# Now sum families 
ensm.speciesbyfam.summary2 <- ensm.speciesbyfam.summary %>% group_by(family) %>% dplyr::summarise(total=length(pop_count)); ensm.speciesbyfam.summary2
```

    ## `summarise()` ungrouping output (override with `.groups` argument)

    ## # A tibble: 29 x 2
    ##    family       total
    ##    <chr>        <int>
    ##  1 Accipitridae     1
    ##  2 Alaudidae        2
    ##  3 Anatidae         1
    ##  4 Cettiidae        4
    ##  5 Charadriidae     2
    ##  6 Columbidae       2
    ##  7 Cuculidae        1
    ##  8 Emberizidae      1
    ##  9 Falconidae       1
    ## 10 Fringillidae     7
    ## # … with 19 more rows
…
``` r
# 90 Asia
# 4 Nearctic-Neotropical
# 11 South America 

# Family summary
family.summary <- ensm %>% group_by(family) %>% dplyr::summarise(count=length(family)); family.summary
```

    ## `summarise()` ungrouping output (override with `.groups` argument)

    ## # A tibble: 29 x 2
    ##    family       count
    ##    <chr>        <int>
    ##  1 Accipitridae     1
    ##  2 Alaudidae        2
    ##  3 Anatidae         2
    ##  4 Cettiidae        4
    ##  5 Charadriidae     2
    ##  6 Columbidae       2
    ##  7 Cuculidae        1
    ##  8 Emberizidae      1
    ##  9 Falconidae       1
    ## 10 Fringillidae     7
    ## # … with 19 more rows

``` r
family.summary <- family.summary[with(family.summary, order(-count)), ]; family.summary # Sort in descending order
```

    ## # A tibble: 29 x 2
    ##    family         count
    ##    <chr>          <int>
    ##  1 Muscicapidae      25
    ##  2 Phylloscopidae    14
    ##  3 Fringillidae       7
    ##  4 Scolopacidae       7
    ##  5 Motacillidae       5
    ##  6 Tyrannidae         5
    ##  7 Cettiidae          4
    ##  8 Hirundinidae       3
    ##  9 Laridae            3
    ## 10 Turdidae           3
    ## # … with 19 more rows
…
